<svg width="1069" height="1039" viewBox="0 0 1069 1039" fill="none" xmlns="http://www.w3.org/2000/svg">
<path opacity="0.1" d="M1282.89 1038.02L-24.4956 783.147L327.129 -7.4187H1282.89L1282.89 1038.02Z" fill="#2E2E2E"/>
</svg>
